module gitlab.com/mb-saces/pinecone

go 1.18

require (
	github.com/Arceliar/phony v0.0.0-20210209235338-dde1a8dca979
	github.com/RyanCarrier/dijkstra v1.1.0
	github.com/gorilla/websocket v1.5.0
	github.com/lucas-clemente/quic-go v0.28.1
	github.com/vishvananda/netlink v1.1.0
	go.uber.org/atomic v1.9.0
	golang.org/x/mobile v0.0.0-20220722155234-aaac322e2105
	golang.org/x/net v0.0.0-20220728211354-c7608f3a8462
	golang.org/x/sys v0.0.0-20220730100132-1609e554cd39
	golang.zx2c4.com/wireguard v0.0.0-20220703234212-c31a7b1ab478
	nhooyr.io/websocket v1.8.7
)

require (
	github.com/cheekybits/genny v1.0.0 // indirect
	github.com/fsnotify/fsnotify v1.5.4 // indirect
	github.com/go-task/slim-sprig v0.0.0-20210107165309-348f09dbbbc0 // indirect
	github.com/klauspost/compress v1.15.9 // indirect
	github.com/marten-seemann/qtls-go1-16 v0.1.5 // indirect
	github.com/marten-seemann/qtls-go1-17 v0.1.2 // indirect
	github.com/marten-seemann/qtls-go1-18 v0.1.2 // indirect
	github.com/marten-seemann/qtls-go1-19 v0.1.0-beta.1 // indirect
	github.com/nxadm/tail v1.4.8 // indirect
	github.com/onsi/ginkgo v1.16.5 // indirect
	github.com/stretchr/testify v1.7.0 // indirect
	github.com/vishvananda/netns v0.0.0-20211101163701-50045581ed74 // indirect
	golang.org/x/crypto v0.0.0-20220722155217-630584e8d5aa // indirect
	golang.org/x/mod v0.6.0-dev.0.20220419223038-86c51ed26bb4 // indirect
	golang.org/x/tools v0.1.12 // indirect
	golang.org/x/xerrors v0.0.0-20220609144429-65e65417b02f // indirect
	golang.zx2c4.com/wintun v0.0.0-20211104114900-415007cec224 // indirect
	gopkg.in/tomb.v1 v1.0.0-20141024135613-dd632973f1e7 // indirect
	gopkg.in/yaml.v3 v3.0.0-20200615113413-eeeca48fe776 // indirect
)
